{
  "data": [
    {
      "flavor_text": "A physical attack in which the user\ncharges and slams into the target\nwith its whole body.",
      "id": 33,
      "short_effect" : "Inflicts regular damage with no additional effect.",
      "effect" : "Inflicts regular damage.",
      "damage_class" : "physical",
      "power_points" : 35,
      "power" : 50,
      "accuracy" : 100, 
      "name" : "Tackle"
    },
    {
      "flavor_text": "Hard, pointed, sharp claws rake\nthe target to inflict damage.",
      "id": 10,
      "short_effect" : "Inflicts regular damage with no additional effect.",
      "effect" : "Inflicts regular damage.",
      "damage_class" : "physical",
      "power_points" : 35,
      "power" : 40,
      "accuracy" : 100, 
      "name" : "Scratch"
    },
    {
      "flavor_text": "The target is cut with a scythe or claw.\nThis can also be used to cut down thin trees.",
      "id": 15,
      "short_effect" : "Inflicts regular damage with no additional effect.",
      "effect" : "Inflicts regular damage.",
      "damage_class" : "physical",
      "power_points" : 30,
      "power" : 50,
      "accuracy" : 95, 
      "name" : "Cut"
    }
  ],
  "has_next": true,
  "has_previous": false,
  "page": 1,
  "total_items": 9,
  "total_pages": 3
}