{
  "data": [
    {
      "flavor_text": "Bulbasaur can be seen napping in bright sunlight.\nThere is a seed on its back. By soaking up the sun\u2019s rays,\nthe seed grows progressively larger",
      "id": 1,
      "habitat" : "grassland",
      "color" : "green",
      "shape" : "quadruped", 
      "name" : "Bulbasaur"
    },
    {
      "flavor_text": "The flame that burns at the tip of its tail is an indication\nof its emotions. The flame wavers when Charmander\nis enjoying itself. If the Pok\u00e9mon becomes enraged,\nthe flame burns fiercely.",
      "id": 4,
      "habitat" : "mountain",
      "color" : "red",
      "shape" : "upright", 
      "name" : "Charmander"
    },
    {
      "flavor_text": "Squirtle\u2019s shell is not merely used for protection.\nThe shell\u2019s rounded shape and the grooves on its\nsurface help minimize resistance in water,\nenabling this Pok\u00e9mon to swim at high speeds.",
      "id": 7,
      "habitat" : "waters-edge",
      "color" : "blue",
      "shape" : "upright", 
      "name" : "Squirtle"
    }
  ],
  "has_next": true,
  "has_previous": false,
  "page": 1,
  "total_items": 9,
  "total_pages": 3
}