{
  "data": [
    {
      "description": "Entire National Dex",
      "id": 1,
      "name": "national",
      "official_name": "National",
      "region": null
    },
    {
      "description": "Red/Blue/Yellow Kanto dexDex",
      "id": 2,
      "name": "kanto",
      "official_name": "Kanto",
      "region": "kanto"
    },
    {
      "description": "HeartGold/SoulSilver Johto dex—Gold/Silver/Crystal's, extended to add move-based Generation IV evolutions",
      "id": 7,
      "name": "updated-johto",
      "official_name": "Updated Johto",
      "region": "johto"
    }
  ],
  "has_next": true,
  "has_previous": false,
  "page": 1,
  "total_items": 15,
  "total_pages": 5
}